<svg version="1.1" viewBox="0 0 16 240" xmlns="http://www.w3.org/2000/svg">
    <defs>
        <style id="current-color-scheme" type="text/css">.ColorScheme-Text {
        color:#232629;
      }</style>
    </defs>
    <g transform="translate(-424.71428,-456.81881)" fill="currentColor">
        <path class="ColorScheme-Text" d="m431.71428 458.81881v1.10156c-0.62595 0.12916-1.22133 0.37712-1.75391 0.73047l-0.78125-0.78125-1.41406 1.41406 0.78125 0.78125c-0.35197 0.53287-0.5986 1.12824-0.72656 1.75391h-1.10547v2h1.10156c0.12916 0.62595 0.37712 1.22133 0.73047 1.75391l-0.78125 0.78125 1.41406 1.41406 0.78125-0.78125c0.53287 0.35197 1.12824 0.5986 1.75391 0.72656v1.10547h2v-1.10156c0.62595-0.12916 1.22133-0.37712 1.75391-0.73047l0.78125 0.78125 1.41406-1.41406-0.78125-0.78125c0.35197-0.53287 0.5986-1.12824 0.72656-1.75391h1.10547v-2h-1.10156c-0.12916-0.62595-0.37712-1.22133-0.73047-1.75391l0.78125-0.78125-1.41406-1.41406-0.78125 0.78125c-0.53288-0.35197-1.12824-0.5986-1.75391-0.72656v-1.10547zm1 2c1.08098 0 2.11594 0.43752 2.86914 1.21289 0.72519 0.74654 1.13086 1.74633 1.13086 2.78711 0 1.08098-0.43752 2.11594-1.21289 2.86914-0.74654 0.72519-1.74633 1.13086-2.78711 1.13086-1.08098 0-2.11594-0.43752-2.86914-1.21289-0.72519-0.74654-1.13086-1.74633-1.13086-2.78711 0-1.08098 0.43752-2.11594 1.21289-2.86914 0.74654-0.72519 1.74633-1.13086 2.78711-1.13086z" fill="currentColor"/>
        <path class="ColorScheme-Text" d="m432.02967 474.8747-0.0577 1.10005c-0.63186 0.0962-1.2394 0.31268-1.78974 0.63767l-0.73929-0.82106-1.48613 1.33811 0.73929 0.82107c-0.37938 0.51372-0.65683 1.09536-0.81736 1.71348l-1.10395-0.0579-0.10467 1.99726 1.10005 0.0576c0.0962 0.63186 0.31268 1.2394 0.63767 1.78974l-0.82106 0.73929 1.33811 1.48613 0.82107-0.73929c0.51372 0.37938 1.09536 0.65683 1.71348 0.81736l-0.0579 1.10395 1.99726 0.10467 0.0577-1.10005c0.63186-0.0962 1.2394-0.31268 1.78974-0.63767l0.73929 0.82106 1.48613-1.33811-0.73929-0.82107c0.37938-0.51372 0.65683-1.09536 0.81736-1.71348l1.10395 0.0579 0.10467-1.99726-1.10005-0.0576c-0.0962-0.63186-0.31268-1.2394-0.63767-1.78974l0.82106-0.73929-1.33811-1.48613-0.82107 0.73929c-0.51373-0.37938-1.09536-0.65683-1.71348-0.81736l0.0579-1.10395zm0.89395 2.04959c1.0795 0.0566 2.09015 0.54766 2.80173 1.36139 0.68513 0.78347 1.03792 1.80312 0.98345 2.84247-0.0566 1.0795-0.54766 2.09015-1.36139 2.80173-0.78347 0.68513-1.80312 1.03792-2.84247 0.98345-1.0795-0.0566-2.09015-0.54766-2.80173-1.36139-0.68513-0.78347-1.03792-1.80312-0.98345-2.84247 0.0566-1.0795 0.54766-2.09015 1.36139-2.80173 0.78347-0.68513 1.80312-1.03792 2.84247-0.98345z" fill="currentColor"/>
        <path class="ColorScheme-Text" d="m432.34693 490.84714-0.11519 1.09552c-0.63603 0.063-1.25407 0.24738-1.82066 0.54313l-0.69531-0.85863-1.55412 1.2585 0.6953 0.85863c-0.40574 0.49317-0.71325 1.05949-0.90591 1.66836l-1.09941-0.1156-0.20906 1.98905 1.09553 0.11509c0.063 0.63603 0.24739 1.25407 0.54313 1.82066l-0.85863 0.69531 1.2585 1.55412 0.85864-0.6953c0.49316 0.40574 1.05948 0.71325 1.66835 0.90591l-0.11559 1.09941 1.98904 0.20905 0.11519-1.09552c0.63603-0.063 1.25407-0.24738 1.82066-0.54313l0.69531 0.85863 1.55412-1.2585-0.6953-0.85863c0.40574-0.49317 0.71325-1.05949 0.90591-1.66836l1.09941 0.1156 0.20906-1.98905-1.09553-0.11509c-0.063-0.63603-0.24739-1.25407-0.54313-1.82066l0.85863-0.69531-1.2585-1.55412-0.85864 0.6953c-0.49317-0.40574-1.05948-0.71325-1.66835-0.90591l0.11559-1.09941zm0.78546 2.09356c1.07506 0.11302 2.05862 0.6563 2.72664 1.50616 0.64319 0.81825 0.94213 1.85497 0.83334 2.89004-0.11302 1.07506-0.6563 2.05863-1.50616 2.72664-0.81825 0.64319-1.85497 0.94213-2.89004 0.83334-1.07506-0.11302-2.05863-0.6563-2.72664-1.50615-0.64319-0.81826-0.94213-1.85497-0.83334-2.89005 0.11302-1.07506 0.6563-2.05862 1.50615-2.72664 0.81826-0.64319 1.85497-0.94213 2.89005-0.83334z" fill="currentColor"/>
        <path class="ColorScheme-Text" d="m432.6652 506.8367-0.17237 1.08799c-0.63846 0.0296-1.2653 0.18141-1.84659 0.4471l-0.64942-0.89385-1.61786 1.17544 0.64941 0.89385c-0.43099 0.47126-0.76772 1.02071-0.99198 1.61866l-1.09185-0.17298-0.31287 1.97538 1.088 0.17227c0.0296 0.63845 0.18142 1.2653 0.4471 1.84659l-0.89384 0.64942 1.17544 1.61785 0.89385-0.64941c0.47125 0.431 1.0207 0.76772 1.61865 0.99199l-0.17297 1.09185 1.97537 0.31286 0.17237-1.08799c0.63846-0.0296 1.2653-0.18141 1.84659-0.4471l0.64942 0.89385 1.61786-1.17544-0.64941-0.89385c0.43099-0.47126 0.76772-1.02071 0.99198-1.61866l1.09185 0.17298 0.31287-1.97538-1.088-0.17227c-0.0296-0.63845-0.18142-1.2653-0.4471-1.84659l0.89384-0.64942-1.17544-1.61785-0.89385 0.64941c-0.47126-0.431-1.0207-0.76772-1.61865-0.99199l0.17297-1.09185zm0.67481 2.1318c1.06767 0.16913 2.02145 0.76314 2.64408 1.64679 0.59948 0.85079 0.84376 1.90174 0.68094 2.9297-0.16913 1.06767-0.76314 2.02146-1.64679 2.64407-0.85079 0.59949-1.90174 0.84376-2.9297 0.68095-1.06767-0.16913-2.02146-0.76314-2.64407-1.64679-0.59949-0.8508-0.84376-1.90173-0.68095-2.9297 0.16913-1.06767 0.76314-2.02145 1.64679-2.64408 0.8508-0.59948 1.90173-0.84376 2.9297-0.68094z" fill="currentColor"/>
        <path class="ColorScheme-Text" d="m432.9836 522.84257-0.22907 1.07748c-0.63914-4e-3 -1.27306 0.11494-1.86746 0.34984l-0.60175-0.92661-1.67716 1.08916 0.60174 0.92661c-0.45507 0.44806-0.82009 0.97913-1.07534 1.56452l-1.0813-0.22988-0.41582 1.9563 1.07749 0.22897c-4e-3 0.63913 0.11495 1.27306 0.34984 1.86746l-0.9266 0.60175 1.08916 1.67715 0.92661-0.60174c0.44805 0.45507 0.97912 0.82009 1.56452 1.07535l-0.22988 1.0813 1.95629 0.41581 0.22907-1.07748c0.63914 4e-3 1.27306-0.11494 1.86746-0.34984l0.60175 0.92661 1.67716-1.08916-0.60174-0.92661c0.45507-0.44806 0.82009-0.97913 1.07534-1.56452l1.0813 0.22988 0.41582-1.9563-1.07749-0.22897c4e-3 -0.63913-0.11495-1.27306-0.34984-1.86746l0.9266-0.60175-1.08916-1.67715-0.92661 0.60174c-0.44806-0.45507-0.97912-0.82009-1.56452-1.07535l0.22988-1.0813zm0.56232 2.16419c1.05735 0.22478 1.97874 0.86789 2.55427 1.78292 0.55413 0.881 0.74307 1.94329 0.52667 2.96132-0.22477 1.05736-0.86788 1.97875-1.78291 2.55426-0.881 0.55414-1.94329 0.74308-2.96132 0.52669-1.05736-0.22478-1.97875-0.86789-2.55426-1.78291-0.55414-0.88101-0.74308-1.94329-0.52669-2.96133 0.22478-1.05735 0.86789-1.97874 1.78291-2.55427 0.88101-0.55413 1.94329-0.74307 2.96133-0.52668z" fill="currentColor"/>
        <path class="ColorScheme-Text" d="m433.30126 538.86477-0.28514 1.06401c-0.63806-0.0374-1.27734 0.0482-1.88321 0.25163l-0.55243-0.95684-1.73187 0.99989 0.55242 0.95684c-0.47789 0.42363-0.87021 0.93486-1.15575 1.50609l-1.06778-0.28615-0.51764 1.93185 1.06403 0.28505c-0.0374 0.63805 0.0482 1.27733 0.25163 1.88321l-0.95683 0.55243 0.9999 1.73186 0.95683-0.55242c0.42362 0.47789 0.93486 0.87021 1.5061 1.15575l-0.28616 1.06779 1.93185 0.51762 0.28514-1.06401c0.63806 0.0374 1.27734-0.0482 1.88321-0.25163l0.55243 0.95684 1.73187-0.99989-0.55242-0.95684c0.47789-0.42363 0.87021-0.93486 1.15575-1.50609l1.06778 0.28615 0.51764-1.93185-1.06403-0.28505c0.0374-0.63805-0.0482-1.27733-0.25163-1.88321l0.95683-0.55243-0.9999-1.73186-0.95683 0.55242c-0.42363-0.47789-0.93486-0.87021-1.5061-1.15575l0.28616-1.06779zm0.44829 2.19065c1.04413 0.27981 1.9306 0.97026 2.45746 1.91416 0.50726 0.90879 0.64034 1.97951 0.37096 2.98482-0.2798 1.04415-0.97025 1.93062-1.91415 2.45745-0.90879 0.50727-1.97951 0.64036-2.98482 0.37099-1.04415-0.27981-1.93062-0.97027-2.45745-1.91415-0.50727-0.90881-0.64036-1.97952-0.37099-2.98484 0.27981-1.04413 0.97026-1.9306 1.91415-2.45746 0.9088-0.50726 1.97952-0.64034 2.98484-0.37097z" fill="currentColor"/>
        <path class="ColorScheme-Text" d="m433.61731 554.90422-0.34043 1.04763c-0.63523-0.0707-1.27811-0.0187-1.8938 0.15272l-0.5016-0.98444-1.78182 0.90788 0.50158 0.98444c-0.4994 0.39804-0.91794 0.88804-1.23299 1.44354l-1.05134-0.34164-0.61803 1.90211 1.04765 0.34035c-0.0707 0.63522-0.0187 1.2781 0.15273 1.8938l-0.98443 0.50159 0.90789 1.78182 0.98443-0.50159c0.39803 0.49941 0.88803 0.91795 1.44355 1.23299l-0.34166 1.05135 1.90212 0.61802 0.34043-1.04763c0.63523 0.0707 1.27811 0.0187 1.8938-0.15272l0.5016 0.98444 1.78182-0.90788-0.50158-0.98444c0.4994-0.39804 0.91794-0.88804 1.23299-1.44354l1.05134 0.34164 0.61803-1.90211-1.04765-0.34035c0.0707-0.63522 0.0187-1.2781-0.15273-1.8938l0.98443-0.50159-0.90789-1.78182-0.98443 0.50159c-0.39804-0.49941-0.88803-0.91795-1.44355-1.23299l0.34166-1.05135zm0.33303 2.21111c1.02805 0.33407 1.87717 1.06997 2.35391 2.04015 0.459 0.93409 0.53586 2.01031 0.21424 3.00014-0.33406 1.02808-1.06996 1.8772-2.04014 2.35391-0.93409 0.45901-2.01031 0.53588-3.00015 0.21426-1.02807-0.33407-1.87719-1.06998-2.3539-2.04013-0.45901-0.93412-0.53588-2.01033-0.21427-3.00017 0.33408-1.02806 1.06997-1.87718 2.04014-2.35391 0.93411-0.45901 2.01032-0.53587 3.00017-0.21425z" fill="currentColor"/>
        <path class="ColorScheme-Text" d="m433.93089 570.95975-0.39479 1.02837c-0.63066-0.10384-1.27538-0.0856-1.8992 0.0534l-0.44939-1.00934-1.8269 0.81338 0.44938 1.00934c-0.51955 0.37136-0.96316 0.83878-1.30685 1.37703l-1.03202-0.39619-0.71673 1.86716 1.0284 0.39471c-0.10385 0.63065-0.0856 1.27537 0.0534 1.8992l-1.00933 0.44938 0.81339 1.82689 1.00934-0.44938c0.37134 0.51956 0.83877 0.96317 1.37704 1.30685l-0.39622 1.03203 1.86717 0.71672 0.39479-1.02837c0.63066 0.10384 1.27538 0.0856 1.8992-0.0534l0.44939 1.00934 1.8269-0.81338-0.44938-1.00934c0.51955-0.37136 0.96316-0.83878 1.30685-1.37703l1.03202 0.39619 0.71673-1.86716-1.0284-0.39471c0.10385-0.63065 0.0856-1.27537-0.0534-1.8992l1.00933-0.44938-0.81339-1.82689-1.00934 0.44938c-0.37135-0.51956-0.83877-0.96317-1.37704-1.30685l0.39622-1.03203zm0.21685 2.22551c1.00916 0.38741 1.8186 1.16674 2.24391 2.16054 0.40949 0.95684 0.42992 2.0356 0.0569 3.00725-0.3874 1.00918-1.16674 1.81863-2.16054 2.24391-0.95683 0.40949-2.0356 0.42993-3.00725 0.057-1.00917-0.38742-1.81862-1.16676-2.2439-2.16053-0.40949-0.95686-0.42993-2.03562-0.057-3.00727 0.38743-1.00917 1.16675-1.81861 2.16054-2.24391 0.95685-0.4095 2.03561-0.42993 3.00727-0.0569z" fill="currentColor"/>
        <path class="ColorScheme-Text" d="m434.24113 587.0311-0.44807 1.0063c-0.62436-0.1367-1.26915-0.15223-1.89939-0.0461l-0.39595-1.03147-1.86696 0.71665 0.39594 1.03147c-0.53828 0.34366-1.00574 0.78723-1.37713 1.30675l-1.00987-0.44966-0.81347 1.82709 1.00633 0.44799c-0.13671 0.62436-0.15223 1.26915-0.0461 1.8994l-1.03146 0.39594 0.71666 1.86695 1.03148-0.39594c0.34364 0.53829 0.78721 1.00575 1.30676 1.37713l-0.44969 1.00988 1.8271 0.81346 0.44807-1.0063c0.62436 0.1367 1.26915 0.15223 1.89939 0.0461l0.39595 1.03147 1.86696-0.71665-0.39594-1.03147c0.53828-0.34366 1.00574-0.78723 1.37713-1.30675l1.00987 0.44966 0.81347-1.82709-1.00633-0.44799c0.13671-0.62436 0.15223-1.26915 0.0461-1.8994l1.03146-0.39594-0.71666-1.86695-1.03148 0.39594c-0.34365-0.53829-0.78721-1.00575-1.30676-1.37713l0.44969-1.00988zm0.10008 2.23381c0.9875 0.4397 1.75505 1.26032 2.12776 2.27502 0.35885 0.97696 0.3228 2.05531-0.10056 3.0061-0.43969 0.98753-1.26032 1.75508-2.27502 2.12777-0.97695 0.35885-2.05531 0.3228-3.00611-0.10047-0.98751-0.43971-1.75506-1.26034-2.12775-2.27501-0.35885-0.97698-0.32281-2.05533 0.10046-3.00613 0.43972-0.98751 1.26033-1.75505 2.27502-2.12776 0.97697-0.35886 2.05532-0.3228 3.00613 0.10057z" fill="currentColor"/>
        <path class="ColorScheme-Text" d="m434.54719 603.11868-0.50012 0.98147c-0.61635-0.16919-1.25945-0.21844-1.89438-0.14544l-0.34142-1.05078-1.90191 0.61796 0.34141 1.05078c-0.55552 0.31501-1.04556 0.73351-1.44363 1.23288l-0.98495-0.50189-0.90798 1.78201 0.98151 0.50004c-0.1692 0.61635-0.21845 1.25945-0.14545 1.89439l-1.05077 0.34141 0.61797 1.9019 1.05079-0.34141c0.315 0.55553 0.7335 1.04557 1.2329 1.44363l-0.50193 0.98496 1.78202 0.90797 0.50012-0.98147c0.61635 0.16919 1.25945 0.21844 1.89438 0.14544l0.34142 1.05078 1.90191-0.61796-0.34141-1.05078c0.55552-0.31501 1.04556-0.73351 1.44363-1.23288l0.98495 0.50189 0.90798-1.78201-0.98151-0.50004c0.1692-0.61635 0.21845-1.25945 0.14545-1.89439l1.05077-0.34141-0.61797-1.9019-1.05079 0.34141c-0.31501-0.55553-0.7335-1.04557-1.2329-1.44363l0.50193-0.98496zm-0.017 2.23599c0.96314 0.49078 1.68669 1.35044 2.00578 2.38326 0.30723 0.9944 0.21479 2.06939-0.25775 2.99672-0.49077 0.96316-1.35045 1.68671-2.38326 2.00578-0.99439 0.30723-2.06939 0.2148-2.99673-0.25766-0.96315-0.49079-1.6867-1.35046-2.00577-2.38325-0.30723-0.99442-0.2148-2.0694 0.25765-2.99675 0.4908-0.96314 1.35045-1.68668 2.38326-2.00578 0.99441-0.30723 2.0694-0.21479 2.99675 0.25776z" fill="currentColor"/>
        <path class="ColorScheme-Text" d="m434.84822 619.22306-0.5508 0.95395c-0.60665-0.20122-1.24629-0.28406-1.88417-0.24439l-0.28596-1.0672-1.93164 0.51757 0.28595 1.06721c-0.57125 0.2855-1.08252 0.67778-1.50618 1.15564l-0.95733-0.55275-1 1.73204 0.95399 0.55073c-0.20122 0.60665-0.28406 1.24629-0.24439 1.88418l-1.0672 0.28595 0.51758 1.93163 1.06722-0.28595c0.2855 0.57126 0.67778 1.08253 1.15566 1.50618l-0.55279 0.95734 1.73206 0.99999 0.5508-0.95395c0.60665 0.20122 1.24629 0.28406 1.88417 0.24439l0.28596 1.0672 1.93164-0.51757-0.28595-1.06721c0.57125-0.2855 1.08252-0.67778 1.50618-1.15564l0.95733 0.55275 1-1.73204-0.95399-0.55073c0.20122-0.60665 0.28406-1.24629 0.24439-1.88418l1.0672-0.28595-0.51758-1.93163-1.06722 0.28595c-0.28551-0.57126-0.67778-1.08253-1.15566-1.50618l0.55279-0.95734zm-0.134 2.23203c0.93614 0.54052 1.61371 1.43687 1.8783 2.48497 0.25477 1.00912 0.1062 2.0778-0.41423 2.97913-0.5405 0.93615-1.43687 1.61372-2.48497 1.8783-1.0091 0.25476-2.07779 0.1062-2.97913-0.41415-0.93615-0.54052-1.61372-1.43688-1.8783-2.48495-0.25476-1.00914-0.1062-2.07781 0.41414-2.97916 0.54053-0.93614 1.43687-1.61369 2.48497-1.8783 1.00912-0.25477 2.0778-0.1062 2.97915 0.41424z" fill="currentColor"/>
        <path class="ColorScheme-Text" d="m435.1434 635.34254-0.59997 0.92382c-0.59528-0.2327-1.22971-0.3489-1.86879-0.34267l-0.22972-1.0807-1.95608 0.41577 0.2297 1.08071c-0.5854 0.25521-1.1165 0.62019-1.56459 1.07523l-0.92709-0.6021-1.08928 1.67733 0.92386 0.59991c-0.23269 0.59528-0.3489 1.22971-0.34267 1.8688l-1.0807 0.22971 0.41578 1.95607 1.08072-0.22971c0.25521 0.58542 0.6202 1.11652 1.07525 1.5646l-0.60214 0.9271 1.67736 1.08927 0.59997-0.92382c0.59528 0.2327 1.22971 0.3489 1.86879 0.34267l0.22972 1.0807 1.95608-0.41577-0.2297-1.08071c0.5854-0.25521 1.1165-0.62019 1.56459-1.07523l0.92709 0.6021 1.08928-1.67733-0.92386-0.59991c0.23269-0.59528 0.3489-1.22971 0.34267-1.8688l1.0807-0.22971-0.41578-1.95607-1.08072 0.22971c-0.25522-0.58542-0.6202-1.11652-1.07525-1.5646l0.60214-0.9271zm-0.25063 2.22196c0.90657 0.58877 1.5363 1.51936 1.74567 2.57987 0.20161 1.02107-3e-3 2.08051-0.56957 2.95336-0.58876 0.90658-1.51936 1.53631-2.57987 1.74568-1.02105 0.2016-2.0805-3e-3 -2.95337-0.5695-0.90658-0.58877-1.53631-1.51937-1.74568-2.57985-0.20159-1.02109 3e-3 -2.08052 0.56949-2.9534 0.58879-0.90657 1.51936-1.53628 2.57987-1.74567 1.02107-0.20161 2.08051 3e-3 2.95339 0.56959z" fill="currentColor"/>
        <path class="ColorScheme-Text" d="m435.43193 651.4769-0.6475 0.89115c-0.58229-0.26354-1.20977-0.41278-1.8483-0.44001l-0.17284-1.09124-1.97516 0.31283 0.17282 1.09125c-0.59795 0.22422-1.14742 0.56091-1.61871 0.99187l-0.89431-0.64979-1.17557 1.61802 0.89119 0.64744c-0.26352 0.58229-0.41278 1.20976-0.44 1.8483l-1.09124 0.17284 0.31283 1.97515 1.09126-0.17284c0.22423 0.59798 0.56092 1.14745 0.9919 1.61873l-0.64984 0.89432 1.61805 1.17556 0.6475-0.89115c0.58229 0.26354 1.20977 0.41278 1.8483 0.44001l0.17284 1.09124 1.97516-0.31283-0.17282-1.09125c0.59795-0.22422 1.14742-0.56091 1.61871-0.99187l0.89431 0.64979 1.17557-1.61802-0.89119-0.64744c0.26352-0.58229 0.41278-1.20976 0.44-1.8483l1.09124-0.17284-0.31283-1.97515-1.09126 0.17284c-0.22424-0.59798-0.56092-1.14745-0.9919-1.61873l0.64984-0.89432zm-0.36658 2.20579c0.87451 0.63541 1.45468 1.59769 1.60826 2.6677 0.14789 1.03022-0.11188 2.0775-0.72336 2.9195-0.6354 0.87453-1.59768 1.45469-2.66769 1.60827-1.03021 0.14789-2.0775-0.11188-2.91952-0.72329-0.87452-0.63541-1.45469-1.59769-1.60827-2.66767-0.14787-1.03024 0.11188-2.07751 0.72328-2.91955 0.63543-0.87451 1.59768-1.45466 2.66769-1.60826 1.03023-0.14789 2.07751 0.11188 2.91954 0.72338z" fill="currentColor"/>
        <path class="ColorScheme-Text" d="m435.71301 667.62682-0.69326 0.85604c-0.56769-0.29365-1.1865-0.47553-1.82273-0.53614l-0.1155-1.09879-1.98882 0.20903 0.11547 1.0988c-0.60886 0.19262-1.1752 0.50009-1.6684 0.9058l-0.85908-0.69571-1.25864 1.55428 0.85609 0.69319c-0.29364 0.5677-0.47553 1.1865-0.53613 1.82274l-1.09879 0.11549 0.20903 1.98882 1.09881-0.11549c0.19262 0.60889 0.50009 1.17523 0.90582 1.66842l-0.69576 0.85909 1.55431 1.25863 0.69326-0.85604c0.56769 0.29365 1.1865 0.47553 1.82273 0.53614l0.1155 1.09879 1.98882-0.20903-0.11547-1.0988c0.60886-0.19262 1.1752-0.50009 1.6684-0.9058l0.85908 0.69571 1.25864-1.55428-0.85609-0.69319c0.29364-0.5677 0.47553-1.1865 0.53613-1.82274l1.09879-0.11549-0.20903-1.98882-1.09881 0.11549c-0.19263-0.6089-0.50009-1.17523-0.90582-1.66842l0.69576-0.85909zm-0.48152 2.18358c0.84005 0.68031 1.36907 1.67164 1.46644 2.74822 0.0938 1.03655-0.22046 2.06879-0.87517 2.87764-0.6803 0.84008-1.67162 1.36908-2.7482 1.46645-1.03654 0.0938-2.0688-0.22046-2.87767-0.8751-0.84006-0.6803-1.36908-1.67163-1.46645-2.74818-0.0937-1.03657 0.22046-2.06881 0.87509-2.8777 0.68033-0.84005 1.67162-1.36905 2.7482-1.46644 1.03656-0.0938 2.06881 0.22046 2.87768 0.87519z" fill="currentColor"/>
        <path class="ColorScheme-Text" d="m435.98587 683.79092-0.73711 0.81858c-0.55155-0.32296-1.15999-0.53697-1.79218-0.6308l-0.0578-1.10333-1.99704 0.10466 0.0578 1.10334c-0.61811 0.16049-1.19976 0.4379-1.71352 0.81724l-0.82149-0.73972-1.33826 1.48628 0.81864 0.73704c-0.32295 0.55156-0.53698 1.15999-0.63079 1.79219l-1.10333 0.0578 0.10465 1.99704 1.10335-0.0578c0.16049 0.61814 0.4379 1.19979 0.81726 1.71354l-0.73977 0.8215 1.48631 1.33825 0.73711-0.81858c0.55155 0.32296 1.15999 0.53697 1.79218 0.6308l0.0578 1.10333 1.99704-0.10466-0.0578-1.10334c0.61811-0.16049 1.19976-0.4379 1.71352-0.81724l0.82149 0.73972 1.33826-1.48628-0.81864-0.73704c0.32295-0.55156 0.53698-1.15999 0.63079-1.79219l1.10333-0.0578-0.10465-1.99704-1.10335 0.0578c-0.1605-0.61815-0.4379-1.19979-0.81726-1.71354l0.73977-0.8215zm-0.59514 2.15538c0.80329 0.72335 1.2797 1.741 1.3206 2.82121 0.0394 1.04003-0.32843 2.05441-1.02458 2.82789-0.72333 0.80332-1.74098 1.27972-2.82118 1.32061-1.04003 0.0394-2.05443-0.32843-2.82793-1.02451-0.8033-0.72333-1.27971-1.74099-1.32061-2.82116-0.0393-1.04005 0.32843-2.05444 1.0245-2.82796 0.72336-0.80329 1.74098-1.27968 2.82118-1.3206 1.04005-0.0394 2.05444 0.32843 2.82793 1.0246z" fill="currentColor"/>
    </g>
</svg>
